{
 "variables": {
        "aws_access_key": "{{env `AWS_ACCESS_KEY_ID`}}",
        "aws_secret_key": "{{env `AWS_SECRET_ACCESS_KEY`}}",
        "destination_regions": "us-east-2"
    },
    "builders": [
        {
            "ami_name": "KH-GitLab-EE-PW-{{isotime \"2006-01-02\"}}",
            "instance_type": "t2.large",
            "region": "us-east-2",
            "force_deregister": true,
            "source_ami_filter": {
              "filters": {
                "virtualization-type": "hvm",
                "name": "ubuntu/images/hvm-ssd/ubuntu-bionic-18.04-amd64-server*",
                "root-device-type": "ebs"
              },
              "owners" : ["099720109477"],
              "most_recent" : "true"
            },
            "ami_regions": "{{user `destination_regions`}}",
            "ssh_username": "ubuntu",
            "type": "amazon-ebs",
            "ami_description" : "GitLab EE AMI created by Packer. This image is based off of the Ubuntu 18.04 AMI. root password set to 'gitlab1234'",
            "tags": {
              "OS_Version": "Ubuntu",
              "Release": "Latest",
              "Base_AMI_Name": "{{ .SourceAMIName }}",
              "Button_Pusher": "Kelly Hair (khair@gitlab.com)",
              "Apps_Installed": "GitLab Enterprise / EE - Dedicated AWS EC2",
              "Project" : "AMI builder",
              "Environments": "All, development, staging",
              "Created_By": "HashiCorp Packer",
              "Initial_Password": "gitlab1234"
            }
        }
    ],
    "provisioners": [
        {
          "type": "file",
          "source": "./GitLab-EE-Password-Set/scripts/GitLab.sh",
          "destination": "/tmp/GitLab.sh"
        },
        {
          "type": "shell",
          "execute_command": "echo '{{user `ssh_pass`}}' | {{ .Vars }} sudo -E -S sh '{{ .Path }}'",
          "inline": [
            "chmod +x /tmp/GitLab.sh",
            "/tmp/GitLab.sh"
          ]
        }
      ]
    }
