{
    "variables": {
           "aws_access_key": "{{env `AWS_ACCESS_KEY_ID`}}",
           "aws_secret_key": "{{env `AWS_SECRET_ACCESS_KEY`}}"
       },
       "builders": [
           {
               "ami_name": "KH-GitLab-EE-PW-WEEKLY",  
               "ami_groups": "all",             
               "instance_type": "t3a.large",
               "region": "us-east-2",
               "force_deregister": true,
               "source_ami_filter": {
                 "filters": {
                   "virtualization-type": "hvm",
                   "name": "ubuntu/images/hvm-ssd/ubuntu-bionic-18.04-amd64-server*",
                   "root-device-type": "ebs"
                 },
                 "owners" : ["099720109477"],
                 "most_recent" : "true"
               },
               "ssh_username": "ubuntu",
               "type": "amazon-ebs",
               "ami_description" : "Docker Community Edition AMI created by Packer. This image is based off of the Ubuntu 18.04 AMI",
               "tags": {
                 "OS_Version": "Ubuntu",
                 "Release": "Latest",
                 "Base_AMI_Name": "{{ .SourceAMIName }}",
                 "SSH_username": "ubuntu",
                 "Button_Pusher": "Kelly Hair (khair@gitlab.com)",
                 "Apps_Installed": "GitLab Enterprise / EE - Dedicated AWS EC2",
                 "Project" : "AMI builder",
                 "Environments": "All, development, staging",
                 "Created_By": "HashiCorp Packer",
                 "GitLab_Password": "gitlab1234"
               },
               "ami_regions": [
                   "us-east-2",
                   "ap-northeast-1",
                   "ap-south-1",
                   "ap-southeast-1",
                   "ca-central-1",
                   "eu-central-1",
                   "eu-west-1",
                   "sa-east-1",
                   "us-east-1",
                   "us-west-1",
                   "eu-north-1",
                   "ap-northeast-2",
                   "ap-southeast-2",
                   "eu-west-2",
                   "us-west-2",
                   "eu-west-3"]
           }
       ],
       "provisioners": [
           {
             "type": "file",
             "source": "./GitLab-EE-Password-Set/scripts/GitLab.sh",
             "destination": "/tmp/GitLab.sh"
           },
           {
             "type": "shell",
             "execute_command": "echo '{{user `ssh_pass`}}' | {{ .Vars }} sudo -E -S sh '{{ .Path }}'",
             "inline": [
               "chmod +x /tmp/GitLab.sh",
               "/tmp/GitLab.sh"
                ]
           }
       ]
   }
   