{
 "variables": {
        "aws_access_key": "{{env `AWS_ACCESS_KEY_ID`}}",
        "aws_secret_key": "{{env `AWS_SECRET_ACCESS_KEY`}}",
        "destination_regions": "us-east-2"
    },
    "builders": [{
      "ami_name": "KH-NodeJS-{{isotime \"2006-01-02\"}}",
      "instance_type": "t2.medium",
      "region": "us-east-2",
      "force_deregister": true,
      "source_ami_filter": {
        "filters": {
          "virtualization-type": "hvm",
          "name": "ubuntu/images/hvm-ssd/ubuntu-bionic-18.04-amd64-server*",
          "root-device-type": "ebs"
        },
        "owners" : ["099720109477"],
        "most_recent" : "true"
      },
      "ami_regions": "{{user `destination_regions`}}",
      "ssh_username": "ubuntu",
      "type": "amazon-ebs",
      "ami_description" : "Node.js 10.15.0",
      "tags": {
        "Apps_Installed": "Node.js 10.15.0",
        "OS_Version": "Ubuntu",
        "Release": "latest",
        "Base_AMI_Name": "{{ .SourceAMIName }}",
        "Created_By": "HashiCorp Packer",
        "Button_Pusher": "Kelly Hair (khair@gitlab.com)",
        "Project" : "Name of Project",
        "Environments": "All, development, staging"
      }
    }
  ],
  "provisioners": [{
    "type": "file",
    "source": "./Node/scripts/nodejs-provision.sh",
    "destination": "/tmp/deploy.sh"
  },
  {
    "type": "shell",
    "execute_command": "echo '{{user `ssh_pass`}}' | {{ .Vars }} sudo -E -S sh '{{ .Path }}'",
    "inline": [
      "chmod +x /tmp/deploy.sh",
      "/tmp/deploy.sh"
    ]
  }]
}
