{
  "variables": {
         "aws_access_key": "{{env `AWS_ACCESS_KEY_ID`}}",
         "aws_secret_key": "{{env `AWS_SECRET_ACCESS_KEY`}}"
     },

  "builders": [
    {
      "ami_name": "KH-GitLab-Runner-Docker-{{isotime \"2006-01-02\"}}",
      "type": "amazon-ebs",
      "region": "us-east-2",
      "instance_type": "t2.medium",
      "ena_support": true,
      "ssh_username": "ubuntu",
      "ami_description" : "GitLab Runner w/ Docker AMI created by Packer. This image is based off of the Ubuntu 18.04 AMI",
      "tags": {
        "Apps_Installed": "GitLab Runner, Docker CE",
        "OS_Version": "Ubuntu",
        "Release": "latest",
        "Base_AMI_Name": "{{ .SourceAMIName }}",
        "Created_By": "HashiCorp Packer",
        "Button_Pusher": "Kelly Hair (khair@gitlab.com)",
        "Project" : "Name of Project",
        "Environments": "All, development, staging"
      },
      "source_ami_filter": {
        "filters": {
          "name": "KH-GitLab-Runner-Docker-*",
          "tag:Button_Pusher":"*khair*"
        },
        "owners": ["self"],
        "most_recent": true
      },
      "ami_regions": [
        "us-east-1",
        "us-west-2",
        "eu-west-1"]
    }
  ]
}
